{
    "king-black": "svg/king-black.svg",
    "queen-black": "svg/queen-black.svg",
    "bishop-black": "svg/bishop-black.svg",
    "knight-black": "svg/knight-black.svg",
    "rock-black-left": "svg/rock-black.svg",
    "rock-black-right": "svg/rock-black.svg",
    "pawn-black": "svg/pawn-black.svg",
    "king-white": "svg/king-white.svg",
    "queen-white": "svg/queen-white.svg",
    "bishop-white": "svg/bishop-white.svg",
    "knight-white": "svg/knight-white.svg",
    "rock-white-left": "svg/rock-white.svg",
    "rock-white-right": "svg/rock-white.svg",
    "pawn-white": "svg/pawn-white.svg"
}