{
    "A8": "rock-black-right",
    "B8": "knight-black",
    "C8": "bishop-black",
    "D8": "queen-black",
    "E8": "king-black",
    "F8": "bishop-black",
    "G8": "knight-black",
    "H8": "rock-black-left",
    "A7": "pawn-black",
    "B7": "pawn-black",
    "C7": "pawn-black",
    "D7": "pawn-black",
    "E7": "pawn-black",
    "F7": "pawn-black",
    "G7": "pawn-black",
    "H7": "pawn-black",
    "A2": "pawn-white",
    "B2": "pawn-white",
    "C2": "pawn-white",
    "D2": "pawn-white",
    "E2": "pawn-white",
    "F2": "pawn-white",
    "G2": "pawn-white",
    "H2": "pawn-white",
    "A1": "rock-white-left",
    "B1": "knight-white",
    "C1": "bishop-white",
    "D1": "queen-white",
    "E1": "king-white",
    "F1": "bishop-white",
    "G1": "knight-white",
    "H1": "rock-white-right"
}